{
  "base_profiles": [
    "debian-gui.json",
    "debian-headless-developer.json"
  ],
  "apt_software": [
    {
      "name": "filezilla",
      "description": "FTP Client"
    }
  ],
  "snap_software": [
    "code --classic",
    "postman",
    "pycharm-community --classic"
  ],
  "gsettings": [
    ["org.gnome.gedit.preferences.editor", "scheme", "solarizeddark"]
  ],
  "configure_solarized": true,
  "manual_reminders": [
        "Configure Gedit:\n\tAdd the trailsave plugin - Clone git@github.com:jonleighton/gedit-trailsave.git or Download https://github.com/jonleighton/gedit-trailsave\n\tSetup JSON prettifier - http://www.milosev.com/downloads/websphere/117-linux/ubuntu/454-json-prettifier-for-gedit.html"
  ]
}
