{
  "base_profiles": [
    "debian-gui.json"
  ],
  "gsettings": [
    ["org.gnome.desktop.lockdown", "disable-lock-screen", "true"],
    ["org.gnome.desktop.session", "idle-delay", "0"],
    ["org.gnome.settings-daemon.plugins.power", "sleep-inactive-ac-timeout", "0"],
    ["org.gnome.settings-daemon.plugins.power", "sleep-inactive-battery-timeout", "0"]
  ]
}
