{
  "apt_software": [
    {
      "name": "arj",
      "description": "Archiver for .arj files"
    },
    {
      "name": "build-essential",
      "description": "Informational list of build-essential packages"
    },
    {
      "name": "cabextract",
      "description": "Microsoft Cabinet file unpacker"
    },
    {
      "name": "cifs-utils",
      "description": "Common Internet File System utilities"
    },
    {
      "name": "cowsay",
      "description": "A configurable talking cow"
    },
    {
      "name": "curl",
      "description": "Command line tool for transferring data with URL syntax"
    },
    {
      "name": "dconf-cli",
      "description": "Simple configuration storage system - utilities"
    },
    {
      "name": "dconf-service",
      "description": "Simple configuration storage system - D-Bus service"
    },
    {
      "name": "dconf-gsettings-backend",
      "description": "Simple configuration storage system - GSettings back-end"
    },
    {
      "name": "exfat-fuse",
      "description": "Read and write exFAT driver for FUSE"
    },
    {
      "name": "exfat-utils",
      "description": "Utilities to create, check, label and dump exFAT filesystem"
    },
    {
      "name": "fortune-mod",
      "description": "Provides fortune cookies on demand"
    },
    {
      "name": "fortunes",
      "description": "Data files containing fortune cookies"
    },
    {
      "name": "gdebi-core",
      "description": "Simple tool to install deb files"
    },
    {
      "name": "git",
      "description": "Fast, scalable, distributed revision control system"
    },
    {
      "name": "libavcodec-extra",
      "description": "FFmpeg library with extra codecs"
    },
    {
      "name": "libimage-exiftool-perl",
      "description": "Library and program to read and write meta information in multimedia files"
    },
    {
      "name": "nfs-common",
      "description": "NFS support files common to client and server"
    },
    {
      "name": "openssl",
      "description": "Secure Sockets Layer toolkit - cryptographic utility"
    },
    {
      "name": "p7zip-full",
      "description": "7z and 7za file archivers with high compression ratio"
    },
    {
      "name": "sharutils",
      "description": "shar, unshar, uuencode, uudecode"
    },
    {
      "name": "screen",
      "description": "Terminal multiplexer with VT100/ANSI terminal emulation"
    },
    {
      "name": "snapd",
      "description": "Daemon and tooling that enable snap packages"
    },
    {
      "name": "software-properties-common",
      "description": "Manage the repositories that you install software from (common)"
    },
    {
      "name": "tree",
      "description": "Displays an indented directory tree, in color"
    },
    {
      "name": "unace",
      "description": "Extract, test and view .ace archives"
    },
    {
      "name": "ufw",
      "description": "Program for managing a Netfilter firewall",
      "post": [
        "sudo ufw enable"
      ]
    },
    {
      "name": "unzip",
      "description": "De-archiver for .zip files"
    },
    {
      "name": "uudeview",
      "description": "Smart multi-file multi-part decoder (command line)"
    },
    {
      "name": "wget",
      "description": "Retrieves files from the web"
    },
    {
      "name": "zip",
      "description": "Archiver for .zip files"
    }
  ],
  "update_system": "dist-upgrade",
  "cleanup_system": true,
  "manual_reminders": [
    "Set time zone: Run 'sudo timedatectl set-timezone <>'",
    "Set hostname: Run 'sudo hostnamectl set-hostname <>'",
    "Debian: To install 'p7zip', 'rar', and 'unrar' the 'non-free' packages must be added to '/etc/apt/sources.list'"
  ]
}
