{
  "base_profiles": [
    "debian-gui.json",
    "debian-headless-media-editing.json"
  ],
  "apt_software": [
    {
      "name": "easytag",
      "description": "GTK+ editor for audio file tags"
    }
  ],
  "snap_software": [
    "gimp",
    "kdenlive"
  ]
}
