{
  "base_profiles": [
    "debian-headless.json"
  ],
  "apt_software": [
    {
      "name": "powertop",
      "description": "Diagnose issues with power consumption and management"
    },
    {
      "name": "tlp",
      "description": "TLP is a power management tool for Linux",
      "post": [
        "sudo tlp start",
        "sudo tlp-stat"
      ]
    },
    {
      "name": "tlp-rdw",
      "description": "Radio device wizard is an add-on to TLP"
    }
  ]
}
