{
  "base_profiles": [
    "debian-headless.json"
  ],
  "apt_software": [
    {
      "name": "faad",
      "description": "Freeware Advanced Audio Decoder"
    },
    {
      "name": "flac",
      "description": "Free Lossless Audio Codec - command line tools"
    },
    {
      "name": "id3v2",
      "description": "A command line id3v2 tag editor"
    },
    {
      "name": "lame",
      "description": "MP3 encoding library"
    },
    {
      "name": "lame-doc",
      "description": "MP3 encoding library"
    },
    {
      "name": "libid3-tools",
      "description": "ID3 tag library"
    },
    {
      "name": "libsox-fmt-all",
      "description": "All SoX format libraries"
    },
    {
      "name": "sox",
      "description": "Swiss army knife of sound processing"
    },
    {
      "name": "vorbis-tools",
      "description": "Several Ogg Vorbis tools"
    }
  ],
  "manual_reminders": [
    "Debian: To install 'faac' the 'non-free' packages must be added to '/etc/apt/sources.list'"
  ]
}


