{
  "base_profiles": [
    "ubuntu-gui-laptop.json"
  ],
  "apt_software": [
    {
      "name": "fortunes-it",
      "description": "Data files containing Italian fortune cookies"
    }
  ],
  "launcher_favorites": [
    "firefox.desktop",
    "google-photos-shortcut.desktop",
    "google-maps-shortcut.desktop",
    "org.gnome.Nautilus.desktop",
    "org.gnome.gedit.desktop",
    "vlc_vlc.desktop",
    "spotify_spotify.desktop",
    "google-chrome.desktop"
  ],
  "launcher_shortcuts": [
    "google-photos-shortcut",
    "google-maps-shortcut"
  ],
  "other_commands": [
    "sudo apt-get remove fortunes -y"
  ],
  "manual_reminders": [
    "Configure Browser plugins: ublock, gnome shell integration"
  ]
}
