{
  "base_profiles": [
    "ubuntu-gui-developer.json",
    "ubuntu-gui-ppa.json",
    "ubuntu-gui-media-editing.json"
  ],
  "apt_software": [
    {
      "name": "nautilus-dropbox",
      "description": "Dropbox integration for Nautilus",
      "post": [
        "nautilus -q"
      ]
    },
    {
      "name": "python3-gpg",
      "description": "Python(3) interface to the GPGME GnuPG encryption library",
      "comment": "Used for installing Dropbox"
    },
    {
      "name": "solaar",
      "description": "Logitech Unifying Receiver peripherals manager for Linux"
    }
  ],
  "snap_software": [
    "keepassxc",
    "pycharm-professional --classic",
    "slack --classic"
  ],
  "launcher_favorites": [
    "firefox.desktop",
    "org.gnome.Nautilus.desktop",
    "org.gnome.Terminal.desktop",
    "org.gnome.gedit.desktop",
    "pycharm-professional_pycharm-professional.desktop",
    "slack_slack.desktop",
    "spotify_spotify.desktop",
    "vlc_vlc.desktop",
    "keepassxc_keepassxc.desktop",
    "libreoffice_libreoffice.desktop"
  ],
  "dotfiles": "https://nicholashughes@bitbucket.org/nicholashughes/ubuntu_dotfiles.git",
  "pyenv": {"apt_update": false},
  "direnv": {"apt_update": false},
  "other_commands": [
    "sudo snap remove pycharm-community"
  ],
  "manual_reminders": [
    "Configure KeepassXC:\n\tSSH Agent - Enable SSH Agent\n\tBrowser Integration - Enable Browser Integration\n\tGeneral - Minimize instead of app exit, Show a system tray icon & Hide window to system tray instead of app exit\n\tAdd Startup Applications in Gnome Tweak Tool\n\tInstall the KeePassXC-Browser Helper Script to enable browser integration if using Snap",
    "Configure Firefox Browser plugins: uBlock Origin, Keepassxc-Browser, Cookie AutoDelete, Privacy Badger, HTTPS Everywhere",
    "Copy ~/Dropbox/keys/config to ~/.ssh/config",
    "Copy ~/Dropbox/sshd_config to /etc/ssh/sshd_config & sudo systemctl restart ssh if running ssh server"
  ]
}
